joins, factors, plots
…
3. Create a new tibble named exp.data.long from
exp.data using pivot_longer()

the new column names should be score and
test

You should see this:

exp.data.long <- pivot_longer(exp.data, c(pre,post1,post2), values_to = 'score', names_to = 'test' )
exp.data.long

## # A tibble: 30 × 3
##    subject test  score
##      <int> <chr> <dbl>
##  1       1 pre    22.9
##  2       1 post1  28.6
##  3       1 post2  10.7
##  4       2 pre    25.9
##  5       2 post1  28.2
##  6       2 post2  19.8
##  7       3 pre    22.7
##  8       3 post1  29.4
##  9       3 post2  20.3
## 10       4 pre    20.1
## # … with 20 more rows
…
5. Make a new tibble named full.data which is the
result of using left_join() on exp.data.long
and demographic.data

full.data <- left_join(exp.data.long, demographic.data)

## Joining, by = "subject"

full.data

## # A tibble: 30 × 5
##    subject test  score   age condition
##      <int> <chr> <dbl> <dbl> <chr>    
##  1       1 pre    22.9  19.9 high     
##  2       1 post1  28.6  19.9 high     
##  3       1 post2  10.7  19.9 high     
##  4       2 pre    25.9  20.0 high     
##  5       2 post1  28.2  20.0 high     
##  6       2 post2  19.8  20.0 high     
##  7       3 pre    22.7  20.0 high     
##  8       3 post1  29.4  20.0 high     
##  9       3 post2  20.3  20.0 high     
## 10       4 pre    20.1  20.2 high     
## # … with 20 more rows
…
