Plausibility
…
part 4, still have energy?

We might also want to know the average for each story (rather than each condition). Create a tibble named p.data3 from p.data which includes the mean for plausbility ratings, grouped by both story and condition. After your summary call, use arrange() to sort the data by condition, and then by the mean rating.

p.data3 <- p.data %>%
  group_by(story_id, condition) %>%
  summarise(mean.plaus = mean(rating), sd.plaus = sd(rating)) %>%
  arrange(condition, mean.plaus)

## `summarise()` has grouped output by 'story_id'. You can override using the
## `.groups` argument.

p.data3

## # A tibble: 80 × 4
## # Groups:   story_id [20]
##    story_id condition            mean.plaus sd.plaus
##    <chr>    <chr>                     <dbl>    <dbl>
##  1 S06      by phrase (agentive)       1.27     1.42
##  2 S02      by phrase (agentive)       2        1   
##  3 S05      by phrase (agentive)       2        1.15
##  4 S08      by phrase (agentive)       2        1.15
##  5 S04      by phrase (agentive)       2.1      1.20
##  6 S17      by phrase (agentive)       2.4      1.07
##  7 S20      by phrase (agentive)       2.5      1.18
##  8 S14      by phrase (agentive)       2.64     1.21
##  9 S18      by phrase (agentive)       2.64     1.57
## 10 S01      by phrase (agentive)       2.7      1.16
## # … with 70 more rows
…
